%YAML 1.1
%TAG !u! tag:unity3d.com,2011:
--- !u!74 &7400000
AnimationClip:
  m_ObjectHideFlags: 0
  m_CorrespondingSourceObject: {fileID: 0}
  m_PrefabInstance: {fileID: 0}
  m_PrefabAsset: {fileID: 0}
  m_Name: DoubleCircle
  serializedVersion: 6
  m_Legacy: 0
  m_Compressed: 0
  m_UseHighQualityCurve: 1
  m_RotationCurves: []
  m_CompressedRotationCurves: []
  m_EulerCurves: []
  m_PositionCurves: []
  m_ScaleCurves: []
  m_FloatCurves: []
  m_PPtrCurves:
  - curve:
    - time: 0
      value: {fileID: 21300000, guid: c29cdc2eb818bf34f8f64f9e0da2d84a, type: 3}
    - time: 0.05
      value: {fileID: 21300000, guid: 9fd0fcb187cc7d0448f1c0fd9ea7461f, type: 3}
    - time: 0.1
      value: {fileID: 21300000, guid: 81cc5186f50c6694a9ec2b6ea366f87f, type: 3}
    - time: 0.15
      value: {fileID: 21300000, guid: 9e298df6512c90342be2876fe396ed95, type: 3}
    - time: 0.2
      value: {fileID: 21300000, guid: fb5fe391be444d84d883b445e4fd6145, type: 3}
    - time: 0.25
      value: {fileID: 21300000, guid: 3f99431c9e714504391211a65deca79d, type: 3}
    - time: 0.3
      value: {fileID: 21300000, guid: 82f9a2f530f72be4892561099f93917a, type: 3}
    - time: 0.35
      value: {fileID: 21300000, guid: 1a4b1e1adb263374da7ab8e0545ced8d, type: 3}
    - time: 0.4
      value: {fileID: 21300000, guid: 76c7c2d521fa33145bfa41423b07bb96, type: 3}
    - time: 0.45
      value: {fileID: 21300000, guid: fccf9c2410ef0594987dbe73b807d0d9, type: 3}
    attribute: m_Sprite
    path: 
    classID: 114
    script: {fileID: 11500000, guid: fe87c0e1cc204ed48ad3b37840f39efc, type: 3}
  m_SampleRate: 20
  m_WrapMode: 0
  m_Bounds:
    m_Center: {x: 0, y: 0, z: 0}
    m_Extent: {x: 0, y: 0, z: 0}
  m_ClipBindingConstant:
    genericBindings:
    - serializedVersion: 2
      path: 0
      attribute: 2015549526
      script: {fileID: 11500000, guid: fe87c0e1cc204ed48ad3b37840f39efc, type: 3}
      typeID: 114
      customType: 0
      isPPtrCurve: 1
    pptrCurveMapping:
    - {fileID: 21300000, guid: c29cdc2eb818bf34f8f64f9e0da2d84a, type: 3}
    - {fileID: 21300000, guid: 9fd0fcb187cc7d0448f1c0fd9ea7461f, type: 3}
    - {fileID: 21300000, guid: 81cc5186f50c6694a9ec2b6ea366f87f, type: 3}
    - {fileID: 21300000, guid: 9e298df6512c90342be2876fe396ed95, type: 3}
    - {fileID: 21300000, guid: fb5fe391be444d84d883b445e4fd6145, type: 3}
    - {fileID: 21300000, guid: 3f99431c9e714504391211a65deca79d, type: 3}
    - {fileID: 21300000, guid: 82f9a2f530f72be4892561099f93917a, type: 3}
    - {fileID: 21300000, guid: 1a4b1e1adb263374da7ab8e0545ced8d, type: 3}
    - {fileID: 21300000, guid: 76c7c2d521fa33145bfa41423b07bb96, type: 3}
    - {fileID: 21300000, guid: fccf9c2410ef0594987dbe73b807d0d9, type: 3}
  m_AnimationClipSettings:
    serializedVersion: 2
    m_AdditiveReferencePoseClip: {fileID: 0}
    m_AdditiveReferencePoseTime: 0
    m_StartTime: 0
    m_StopTime: 0.5
    m_OrientationOffsetY: 0
    m_Level: 0
    m_CycleOffset: 0
    m_HasAdditiveReferencePose: 0
    m_LoopTime: 0
    m_LoopBlend: 0
    m_LoopBlendOrientation: 0
    m_LoopBlendPositionY: 0
    m_LoopBlendPositionXZ: 0
    m_KeepOriginalOrientation: 0
    m_KeepOriginalPositionY: 1
    m_KeepOriginalPositionXZ: 0
    m_HeightFromFeet: 0
    m_Mirror: 0
  m_EditorCurves: []
  m_EulerEditorCurves: []
  m_HasGenericRootTransform: 0
  m_HasMotionFloatCurves: 0
  m_Events: []
