%YAML 1.1
%TAG !u! tag:unity3d.com,2011:
--- !u!74 &7400000
AnimationClip:
  m_ObjectHideFlags: 0
  m_CorrespondingSourceObject: {fileID: 0}
  m_PrefabInstance: {fileID: 0}
  m_PrefabAsset: {fileID: 0}
  m_Name: InwardSpiral
  serializedVersion: 6
  m_Legacy: 0
  m_Compressed: 0
  m_UseHighQualityCurve: 1
  m_RotationCurves: []
  m_CompressedRotationCurves: []
  m_EulerCurves: []
  m_PositionCurves: []
  m_ScaleCurves: []
  m_FloatCurves: []
  m_PPtrCurves:
  - curve:
    - time: 0
      value: {fileID: 21300000, guid: d4996c3470440f246bef188e7723df91, type: 3}
    - time: 0.025
      value: {fileID: 21300000, guid: 6d5b73d6c30c16a46bba02b3e1543d74, type: 3}
    - time: 0.05
      value: {fileID: 21300000, guid: cf4d3fc33716e5047ac469583e6a9976, type: 3}
    - time: 0.075
      value: {fileID: 21300000, guid: e2831104fc1faf04385112f9f3384cd3, type: 3}
    - time: 0.1
      value: {fileID: 21300000, guid: 8ae784d5428e78a4b9ab716bf4ec7da5, type: 3}
    - time: 0.125
      value: {fileID: 21300000, guid: f3a9d0ed47d6f45459c5241125b5b49a, type: 3}
    - time: 0.15
      value: {fileID: 21300000, guid: 03f19da9295608c448f12b00ba7ae5f1, type: 3}
    - time: 0.175
      value: {fileID: 21300000, guid: 21238876fe21c4143a31997ae0313b2b, type: 3}
    - time: 0.2
      value: {fileID: 21300000, guid: f7854293471493d419fc0becab295101, type: 3}
    - time: 0.225
      value: {fileID: 21300000, guid: d691b28727e71cd41a4a8499847fd1ff, type: 3}
    - time: 0.25
      value: {fileID: 21300000, guid: 9ae126ebfc81bc34baf98fb5dd7ee2ea, type: 3}
    - time: 0.275
      value: {fileID: 21300000, guid: b38e3195351703944aa8f5fce9f67860, type: 3}
    - time: 0.3
      value: {fileID: 21300000, guid: 6173ce8d06dc8914b893d710198960ae, type: 3}
    - time: 0.325
      value: {fileID: 21300000, guid: fb5f11b30a623ac4ba0d91dd580bb0f8, type: 3}
    - time: 0.35
      value: {fileID: 21300000, guid: 3f2155cd730643441862522964fe8ef3, type: 3}
    - time: 0.375
      value: {fileID: 21300000, guid: bc777d19c3d669a4993a0cba90eed3e6, type: 3}
    - time: 0.4
      value: {fileID: 21300000, guid: 92b6148688a4bdd4aa7cd3975b795e05, type: 3}
    - time: 0.425
      value: {fileID: 21300000, guid: de68954d29b46fb4cb0626e6e151837c, type: 3}
    - time: 0.45
      value: {fileID: 21300000, guid: 4093312b1d887c6499e40fcb0dbb8165, type: 3}
    - time: 0.475
      value: {fileID: 21300000, guid: 625185318cad4714e92811b552d195f4, type: 3}
    - time: 0.5
      value: {fileID: 21300000, guid: 098ba737b3df1734a96c02c797ab5513, type: 3}
    - time: 0.525
      value: {fileID: 21300000, guid: 800a175dac244554b98a531779f0f907, type: 3}
    - time: 0.55
      value: {fileID: 21300000, guid: b980f6b5d64ae04428dc72b091a02c1d, type: 3}
    - time: 0.575
      value: {fileID: 21300000, guid: bbbc877aa82550d41a2d83604197f964, type: 3}
    - time: 0.6
      value: {fileID: 21300000, guid: 7524f387065e1454bb5f2013a21b6c8c, type: 3}
    - time: 0.625
      value: {fileID: 21300000, guid: cd987c89b67b7b3449c2fc06f62f3a1d, type: 3}
    - time: 0.65
      value: {fileID: 21300000, guid: 28bd8f205b819924dad2aa1ac0bc2797, type: 3}
    - time: 0.675
      value: {fileID: 21300000, guid: 0e9f8cd002ced9c4f9359f66ebbfb80d, type: 3}
    - time: 0.7
      value: {fileID: 21300000, guid: 856f3aacd504d7042918aed98102252f, type: 3}
    - time: 0.725
      value: {fileID: 21300000, guid: 03051ce48d937b7488437cc0d5921056, type: 3}
    - time: 0.75
      value: {fileID: 21300000, guid: 7f41efa1f55e14543a32b265af75ca0f, type: 3}
    - time: 0.775
      value: {fileID: 21300000, guid: 7fe1623bea86ef247b11a486ecedfffc, type: 3}
    - time: 0.8
      value: {fileID: 21300000, guid: 87fc8d331e717ea4fb3cffdfcbe3c0db, type: 3}
    - time: 0.825
      value: {fileID: 21300000, guid: cae172318e5a9984792723615f5f5fc6, type: 3}
    - time: 0.85
      value: {fileID: 21300000, guid: 736f5220fb5e7184ab65bcf6347691f4, type: 3}
    - time: 0.875
      value: {fileID: 21300000, guid: 299a03b6dd159f0479756ca167979ac8, type: 3}
    - time: 0.9
      value: {fileID: 21300000, guid: 3473f4b1a2576064781eafd1732bef50, type: 3}
    - time: 0.925
      value: {fileID: 21300000, guid: 2dcdb2c595b74944aa14c7ca7f9fa40c, type: 3}
    - time: 0.95
      value: {fileID: 21300000, guid: 7c0764ab3c03b6d4e9c33773d0ee3807, type: 3}
    - time: 0.975
      value: {fileID: 21300000, guid: 29da8c6a900129c468e4844f9918ac8d, type: 3}
    - time: 1
      value: {fileID: 21300000, guid: a6878216d884e334a9354c94811cfbd0, type: 3}
    - time: 1.025
      value: {fileID: 21300000, guid: 41aa3d3d256d37746acbbe9a7b1a2331, type: 3}
    - time: 1.05
      value: {fileID: 21300000, guid: c56776f1198d0f1419a9effcb79b03db, type: 3}
    - time: 1.075
      value: {fileID: 21300000, guid: 426fe63ee7c37d540afe9c4dd94eb447, type: 3}
    - time: 1.1
      value: {fileID: 21300000, guid: f83866a0d26607a4895935a4c83cc11f, type: 3}
    - time: 1.125
      value: {fileID: 21300000, guid: 80e9650253fb3a2448ad0b178d74155e, type: 3}
    - time: 1.15
      value: {fileID: 21300000, guid: f4d5c864170c8c04799ebe971b318659, type: 3}
    - time: 1.175
      value: {fileID: 21300000, guid: 710f5b61949bcd14caee3da957247795, type: 3}
    - time: 1.2
      value: {fileID: 21300000, guid: 467759893f6755d4996d78d1dad6f51e, type: 3}
    - time: 1.225
      value: {fileID: 21300000, guid: 074870dd60521314b90f470ec6713a18, type: 3}
    - time: 1.25
      value: {fileID: 21300000, guid: 3eac7cc1dd8a11e4abd4dccb9af903c9, type: 3}
    - time: 1.275
      value: {fileID: 21300000, guid: b48badff2e1127f47b2d6de48d312991, type: 3}
    - time: 1.3
      value: {fileID: 21300000, guid: 4343d3bfe8b2903409e377b98ecb55fa, type: 3}
    - time: 1.325
      value: {fileID: 21300000, guid: fda4b9e1ac304a04984ad89273aacaf3, type: 3}
    - time: 1.35
      value: {fileID: 21300000, guid: 62210fc3f5983e3498f053e8de3d7b22, type: 3}
    - time: 1.375
      value: {fileID: 21300000, guid: 086a173dc5cf41244a933b62cceba733, type: 3}
    - time: 1.4
      value: {fileID: 21300000, guid: 8c5cda9ee759ccf458f2831062dc57a8, type: 3}
    - time: 1.425
      value: {fileID: 21300000, guid: c23dc2b328f80cc4faa3c3ca08ebf9b9, type: 3}
    - time: 1.45
      value: {fileID: 21300000, guid: a0ee28e089e1d974eaa00f5475ce16e3, type: 3}
    - time: 1.475
      value: {fileID: 21300000, guid: d0446f54c5d960d49a077a4fcf176085, type: 3}
    - time: 1.5
      value: {fileID: 21300000, guid: b8241cf40481bd44b8e5231e6536adc8, type: 3}
    - time: 1.525
      value: {fileID: 21300000, guid: a222f6daece8f704eb50c75dae15b8aa, type: 3}
    - time: 1.55
      value: {fileID: 21300000, guid: 176da0744b8f4e94b9c10333b1838ae2, type: 3}
    - time: 1.575
      value: {fileID: 21300000, guid: 4a7c353e373dccf44a7fde9e8b0b41b6, type: 3}
    - time: 1.6
      value: {fileID: 21300000, guid: 325c7d3c9ea10bc4da6a83d95fd89566, type: 3}
    - time: 1.625
      value: {fileID: 21300000, guid: 6841b834689af2d498d293f4b26ef434, type: 3}
    - time: 1.65
      value: {fileID: 21300000, guid: 1ac8d6f52c32d70458e86bbfc1dcb21e, type: 3}
    - time: 1.675
      value: {fileID: 21300000, guid: 07118ba81f6759c48a4aa862223841de, type: 3}
    - time: 1.7
      value: {fileID: 21300000, guid: eccd649f246e1384bb0af9bd86fe4faa, type: 3}
    - time: 1.725
      value: {fileID: 21300000, guid: e3ac54c99f6716144b80f7b4ac883712, type: 3}
    - time: 1.75
      value: {fileID: 21300000, guid: 42d6e63965d5c404ba5976e1e01bec1c, type: 3}
    - time: 1.775
      value: {fileID: 21300000, guid: acce6767f1a157a438cf7151f352cb28, type: 3}
    attribute: m_Sprite
    path: 
    classID: 114
    script: {fileID: 11500000, guid: fe87c0e1cc204ed48ad3b37840f39efc, type: 3}
  m_SampleRate: 40
  m_WrapMode: 0
  m_Bounds:
    m_Center: {x: 0, y: 0, z: 0}
    m_Extent: {x: 0, y: 0, z: 0}
  m_ClipBindingConstant:
    genericBindings:
    - serializedVersion: 2
      path: 0
      attribute: 2015549526
      script: {fileID: 11500000, guid: fe87c0e1cc204ed48ad3b37840f39efc, type: 3}
      typeID: 114
      customType: 0
      isPPtrCurve: 1
    pptrCurveMapping:
    - {fileID: 21300000, guid: d4996c3470440f246bef188e7723df91, type: 3}
    - {fileID: 21300000, guid: 6d5b73d6c30c16a46bba02b3e1543d74, type: 3}
    - {fileID: 21300000, guid: cf4d3fc33716e5047ac469583e6a9976, type: 3}
    - {fileID: 21300000, guid: e2831104fc1faf04385112f9f3384cd3, type: 3}
    - {fileID: 21300000, guid: 8ae784d5428e78a4b9ab716bf4ec7da5, type: 3}
    - {fileID: 21300000, guid: f3a9d0ed47d6f45459c5241125b5b49a, type: 3}
    - {fileID: 21300000, guid: 03f19da9295608c448f12b00ba7ae5f1, type: 3}
    - {fileID: 21300000, guid: 21238876fe21c4143a31997ae0313b2b, type: 3}
    - {fileID: 21300000, guid: f7854293471493d419fc0becab295101, type: 3}
    - {fileID: 21300000, guid: d691b28727e71cd41a4a8499847fd1ff, type: 3}
    - {fileID: 21300000, guid: 9ae126ebfc81bc34baf98fb5dd7ee2ea, type: 3}
    - {fileID: 21300000, guid: b38e3195351703944aa8f5fce9f67860, type: 3}
    - {fileID: 21300000, guid: 6173ce8d06dc8914b893d710198960ae, type: 3}
    - {fileID: 21300000, guid: fb5f11b30a623ac4ba0d91dd580bb0f8, type: 3}
    - {fileID: 21300000, guid: 3f2155cd730643441862522964fe8ef3, type: 3}
    - {fileID: 21300000, guid: bc777d19c3d669a4993a0cba90eed3e6, type: 3}
    - {fileID: 21300000, guid: 92b6148688a4bdd4aa7cd3975b795e05, type: 3}
    - {fileID: 21300000, guid: de68954d29b46fb4cb0626e6e151837c, type: 3}
    - {fileID: 21300000, guid: 4093312b1d887c6499e40fcb0dbb8165, type: 3}
    - {fileID: 21300000, guid: 625185318cad4714e92811b552d195f4, type: 3}
    - {fileID: 21300000, guid: 098ba737b3df1734a96c02c797ab5513, type: 3}
    - {fileID: 21300000, guid: 800a175dac244554b98a531779f0f907, type: 3}
    - {fileID: 21300000, guid: b980f6b5d64ae04428dc72b091a02c1d, type: 3}
    - {fileID: 21300000, guid: bbbc877aa82550d41a2d83604197f964, type: 3}
    - {fileID: 21300000, guid: 7524f387065e1454bb5f2013a21b6c8c, type: 3}
    - {fileID: 21300000, guid: cd987c89b67b7b3449c2fc06f62f3a1d, type: 3}
    - {fileID: 21300000, guid: 28bd8f205b819924dad2aa1ac0bc2797, type: 3}
    - {fileID: 21300000, guid: 0e9f8cd002ced9c4f9359f66ebbfb80d, type: 3}
    - {fileID: 21300000, guid: 856f3aacd504d7042918aed98102252f, type: 3}
    - {fileID: 21300000, guid: 03051ce48d937b7488437cc0d5921056, type: 3}
    - {fileID: 21300000, guid: 7f41efa1f55e14543a32b265af75ca0f, type: 3}
    - {fileID: 21300000, guid: 7fe1623bea86ef247b11a486ecedfffc, type: 3}
    - {fileID: 21300000, guid: 87fc8d331e717ea4fb3cffdfcbe3c0db, type: 3}
    - {fileID: 21300000, guid: cae172318e5a9984792723615f5f5fc6, type: 3}
    - {fileID: 21300000, guid: 736f5220fb5e7184ab65bcf6347691f4, type: 3}
    - {fileID: 21300000, guid: 299a03b6dd159f0479756ca167979ac8, type: 3}
    - {fileID: 21300000, guid: 3473f4b1a2576064781eafd1732bef50, type: 3}
    - {fileID: 21300000, guid: 2dcdb2c595b74944aa14c7ca7f9fa40c, type: 3}
    - {fileID: 21300000, guid: 7c0764ab3c03b6d4e9c33773d0ee3807, type: 3}
    - {fileID: 21300000, guid: 29da8c6a900129c468e4844f9918ac8d, type: 3}
    - {fileID: 21300000, guid: a6878216d884e334a9354c94811cfbd0, type: 3}
    - {fileID: 21300000, guid: 41aa3d3d256d37746acbbe9a7b1a2331, type: 3}
    - {fileID: 21300000, guid: c56776f1198d0f1419a9effcb79b03db, type: 3}
    - {fileID: 21300000, guid: 426fe63ee7c37d540afe9c4dd94eb447, type: 3}
    - {fileID: 21300000, guid: f83866a0d26607a4895935a4c83cc11f, type: 3}
    - {fileID: 21300000, guid: 80e9650253fb3a2448ad0b178d74155e, type: 3}
    - {fileID: 21300000, guid: f4d5c864170c8c04799ebe971b318659, type: 3}
    - {fileID: 21300000, guid: 710f5b61949bcd14caee3da957247795, type: 3}
    - {fileID: 21300000, guid: 467759893f6755d4996d78d1dad6f51e, type: 3}
    - {fileID: 21300000, guid: 074870dd60521314b90f470ec6713a18, type: 3}
    - {fileID: 21300000, guid: 3eac7cc1dd8a11e4abd4dccb9af903c9, type: 3}
    - {fileID: 21300000, guid: b48badff2e1127f47b2d6de48d312991, type: 3}
    - {fileID: 21300000, guid: 4343d3bfe8b2903409e377b98ecb55fa, type: 3}
    - {fileID: 21300000, guid: fda4b9e1ac304a04984ad89273aacaf3, type: 3}
    - {fileID: 21300000, guid: 62210fc3f5983e3498f053e8de3d7b22, type: 3}
    - {fileID: 21300000, guid: 086a173dc5cf41244a933b62cceba733, type: 3}
    - {fileID: 21300000, guid: 8c5cda9ee759ccf458f2831062dc57a8, type: 3}
    - {fileID: 21300000, guid: c23dc2b328f80cc4faa3c3ca08ebf9b9, type: 3}
    - {fileID: 21300000, guid: a0ee28e089e1d974eaa00f5475ce16e3, type: 3}
    - {fileID: 21300000, guid: d0446f54c5d960d49a077a4fcf176085, type: 3}
    - {fileID: 21300000, guid: b8241cf40481bd44b8e5231e6536adc8, type: 3}
    - {fileID: 21300000, guid: a222f6daece8f704eb50c75dae15b8aa, type: 3}
    - {fileID: 21300000, guid: 176da0744b8f4e94b9c10333b1838ae2, type: 3}
    - {fileID: 21300000, guid: 4a7c353e373dccf44a7fde9e8b0b41b6, type: 3}
    - {fileID: 21300000, guid: 325c7d3c9ea10bc4da6a83d95fd89566, type: 3}
    - {fileID: 21300000, guid: 6841b834689af2d498d293f4b26ef434, type: 3}
    - {fileID: 21300000, guid: 1ac8d6f52c32d70458e86bbfc1dcb21e, type: 3}
    - {fileID: 21300000, guid: 07118ba81f6759c48a4aa862223841de, type: 3}
    - {fileID: 21300000, guid: eccd649f246e1384bb0af9bd86fe4faa, type: 3}
    - {fileID: 21300000, guid: e3ac54c99f6716144b80f7b4ac883712, type: 3}
    - {fileID: 21300000, guid: 42d6e63965d5c404ba5976e1e01bec1c, type: 3}
    - {fileID: 21300000, guid: acce6767f1a157a438cf7151f352cb28, type: 3}
  m_AnimationClipSettings:
    serializedVersion: 2
    m_AdditiveReferencePoseClip: {fileID: 0}
    m_AdditiveReferencePoseTime: 0
    m_StartTime: 0
    m_StopTime: 1.8
    m_OrientationOffsetY: 0
    m_Level: 0
    m_CycleOffset: 0
    m_HasAdditiveReferencePose: 0
    m_LoopTime: 0
    m_LoopBlend: 0
    m_LoopBlendOrientation: 0
    m_LoopBlendPositionY: 0
    m_LoopBlendPositionXZ: 0
    m_KeepOriginalOrientation: 0
    m_KeepOriginalPositionY: 1
    m_KeepOriginalPositionXZ: 0
    m_HeightFromFeet: 0
    m_Mirror: 0
  m_EditorCurves: []
  m_EulerEditorCurves: []
  m_HasGenericRootTransform: 0
  m_HasMotionFloatCurves: 0
  m_Events: []
