%YAML 1.1
%TAG !u! tag:unity3d.com,2011:
--- !u!74 &7400000
AnimationClip:
  m_ObjectHideFlags: 0
  m_CorrespondingSourceObject: {fileID: 0}
  m_PrefabInstance: {fileID: 0}
  m_PrefabAsset: {fileID: 0}
  m_Name: SingleCircle
  serializedVersion: 6
  m_Legacy: 0
  m_Compressed: 0
  m_UseHighQualityCurve: 1
  m_RotationCurves: []
  m_CompressedRotationCurves: []
  m_EulerCurves: []
  m_PositionCurves: []
  m_ScaleCurves: []
  m_FloatCurves: []
  m_PPtrCurves:
  - curve:
    - time: 0
      value: {fileID: 21300000, guid: 7652055e427dac0409ed8ccc1dc09f68, type: 3}
    - time: 0.025
      value: {fileID: 21300000, guid: 4ed8dbe22ec39f948a0e5293f039b2d6, type: 3}
    - time: 0.05
      value: {fileID: 21300000, guid: 1f6c17c01bb3a594f97ecd1a9af9ac7a, type: 3}
    - time: 0.075
      value: {fileID: 21300000, guid: 8a67e7501de6219409de80be9c43e472, type: 3}
    - time: 0.1
      value: {fileID: 21300000, guid: 9d876207d0438f5499b2eefc38c5adc2, type: 3}
    - time: 0.125
      value: {fileID: 21300000, guid: 413055835dfaed14f9f43f64eb95be1e, type: 3}
    - time: 0.15
      value: {fileID: 21300000, guid: 780f24df9c7cf874692bbdfef1a084ea, type: 3}
    - time: 0.175
      value: {fileID: 21300000, guid: 385a26931d96e8142951effe5d977537, type: 3}
    - time: 0.2
      value: {fileID: 21300000, guid: 63d6cde962751464c9b4912f0a76dae8, type: 3}
    - time: 0.225
      value: {fileID: 21300000, guid: e714142b4b9b48f4e92044d4a7c9f587, type: 3}
    - time: 0.25
      value: {fileID: 21300000, guid: a2a8ddad55ac7ce4fb5da10278c520d6, type: 3}
    - time: 0.275
      value: {fileID: 21300000, guid: 17f74a25727706a4a8c9768274076417, type: 3}
    - time: 0.3
      value: {fileID: 21300000, guid: 5066c111c8c6a714084d463021bf0827, type: 3}
    - time: 0.325
      value: {fileID: 21300000, guid: 73f3532428bd10e44beaf0e382f61f3b, type: 3}
    - time: 0.35
      value: {fileID: 21300000, guid: f39dd8228e233a047a15edd2aab5b236, type: 3}
    - time: 0.375
      value: {fileID: 21300000, guid: 8bef7eb1c4b391e49ac1f4307a814886, type: 3}
    - time: 0.4
      value: {fileID: 21300000, guid: 61898d7c5a3e0bf4eaa301bc173cfc13, type: 3}
    - time: 0.425
      value: {fileID: 21300000, guid: f427a81f46418454c9f91c8e4d8ab976, type: 3}
    - time: 0.45
      value: {fileID: 21300000, guid: b0678a043e4627748899ec5481b8278e, type: 3}
    - time: 0.475
      value: {fileID: 21300000, guid: 5de6556c1d06a4a419e68b78e3327862, type: 3}
    attribute: m_Sprite
    path: 
    classID: 114
    script: {fileID: 11500000, guid: fe87c0e1cc204ed48ad3b37840f39efc, type: 3}
  m_SampleRate: 40
  m_WrapMode: 0
  m_Bounds:
    m_Center: {x: 0, y: 0, z: 0}
    m_Extent: {x: 0, y: 0, z: 0}
  m_ClipBindingConstant:
    genericBindings:
    - serializedVersion: 2
      path: 0
      attribute: 2015549526
      script: {fileID: 11500000, guid: fe87c0e1cc204ed48ad3b37840f39efc, type: 3}
      typeID: 114
      customType: 0
      isPPtrCurve: 1
    pptrCurveMapping:
    - {fileID: 21300000, guid: 7652055e427dac0409ed8ccc1dc09f68, type: 3}
    - {fileID: 21300000, guid: 4ed8dbe22ec39f948a0e5293f039b2d6, type: 3}
    - {fileID: 21300000, guid: 1f6c17c01bb3a594f97ecd1a9af9ac7a, type: 3}
    - {fileID: 21300000, guid: 8a67e7501de6219409de80be9c43e472, type: 3}
    - {fileID: 21300000, guid: 9d876207d0438f5499b2eefc38c5adc2, type: 3}
    - {fileID: 21300000, guid: 413055835dfaed14f9f43f64eb95be1e, type: 3}
    - {fileID: 21300000, guid: 780f24df9c7cf874692bbdfef1a084ea, type: 3}
    - {fileID: 21300000, guid: 385a26931d96e8142951effe5d977537, type: 3}
    - {fileID: 21300000, guid: 63d6cde962751464c9b4912f0a76dae8, type: 3}
    - {fileID: 21300000, guid: e714142b4b9b48f4e92044d4a7c9f587, type: 3}
    - {fileID: 21300000, guid: a2a8ddad55ac7ce4fb5da10278c520d6, type: 3}
    - {fileID: 21300000, guid: 17f74a25727706a4a8c9768274076417, type: 3}
    - {fileID: 21300000, guid: 5066c111c8c6a714084d463021bf0827, type: 3}
    - {fileID: 21300000, guid: 73f3532428bd10e44beaf0e382f61f3b, type: 3}
    - {fileID: 21300000, guid: f39dd8228e233a047a15edd2aab5b236, type: 3}
    - {fileID: 21300000, guid: 8bef7eb1c4b391e49ac1f4307a814886, type: 3}
    - {fileID: 21300000, guid: 61898d7c5a3e0bf4eaa301bc173cfc13, type: 3}
    - {fileID: 21300000, guid: f427a81f46418454c9f91c8e4d8ab976, type: 3}
    - {fileID: 21300000, guid: b0678a043e4627748899ec5481b8278e, type: 3}
    - {fileID: 21300000, guid: 5de6556c1d06a4a419e68b78e3327862, type: 3}
  m_AnimationClipSettings:
    serializedVersion: 2
    m_AdditiveReferencePoseClip: {fileID: 0}
    m_AdditiveReferencePoseTime: 0
    m_StartTime: 0
    m_StopTime: 0.5
    m_OrientationOffsetY: 0
    m_Level: 0
    m_CycleOffset: 0
    m_HasAdditiveReferencePose: 0
    m_LoopTime: 0
    m_LoopBlend: 0
    m_LoopBlendOrientation: 0
    m_LoopBlendPositionY: 0
    m_LoopBlendPositionXZ: 0
    m_KeepOriginalOrientation: 0
    m_KeepOriginalPositionY: 1
    m_KeepOriginalPositionXZ: 0
    m_HeightFromFeet: 0
    m_Mirror: 0
  m_EditorCurves: []
  m_EulerEditorCurves: []
  m_HasGenericRootTransform: 0
  m_HasMotionFloatCurves: 0
  m_Events: []
