%YAML 1.1
%TAG !u! tag:unity3d.com,2011:
--- !u!114 &11400000
MonoBehaviour:
  m_ObjectHideFlags: 0
  m_CorrespondingSourceObject: {fileID: 0}
  m_PrefabInstance: {fileID: 0}
  m_PrefabAsset: {fileID: 0}
  m_GameObject: {fileID: 0}
  m_Enabled: 1
  m_EditorHideFlags: 0
  m_Script: {fileID: 11500000, guid: 905ce50da8296cc43ab9ac0aacf250fa, type: 3}
  m_Name: Healing is done
  m_EditorClassIdentifier: 
  generalSentences:
  - 'Thank you!

    Your #MON are

    fighting fit!'
