%YAML 1.1
%TAG !u! tag:unity3d.com,2011:
--- !u!114 &11400000
MonoBehaviour:
  m_ObjectHideFlags: 0
  m_CorrespondingSourceObject: {fileID: 0}
  m_PrefabInstance: {fileID: 0}
  m_PrefabAsset: {fileID: 0}
  m_GameObject: {fileID: 0}
  m_Enabled: 1
  m_EditorHideFlags: 0
  m_Script: {fileID: 11500000, guid: 873f45ac17f41f04589b788f714c0718, type: 3}
  m_Name: ScriptableObjectTest1
  m_EditorClassIdentifier: 
  test1: 0
  numberOfTiles: 0
  classes:
  - test1: 0
    numberOfTiles: 0
    place: {x: 0, y: 0}
    directionPath: {fileID: 0}
  - test1: 0
    numberOfTiles: 0
    place: {x: 0, y: 0}
    directionPath: {fileID: 11400000, guid: a41b260861a5cfa45b90cf2e9730e43b, type: 2}
