{
	"Pikachu" : {
		"THUNDERSTONE" : "Raichu"
	},
	"Nidorina" : {
		"MOON STONE" : "Nidoqueen"
	},
	"Nidorino" : {
		"MOON STONE" : "Nidoking"
	},
	"Clefairy" : {
		"MOON STONE" : "Clefable"
	},
	"Vulpix" : {
		"FIRE STONE" : "Ninetales"
	},
	"Jigglypuff" : {
		"MOON STONE" : "Wigglytuff"
	},
	"Gloom" : {
		"LEAF STONE" : "Vileplume"
	},
	"Growlithe" : {
		"FIRE STONE" : "Arcanine"
	},
	"Poliwhirl" : {
		"WATER STONE" : "Poliwrath"
	},
	"Weepinbell" : {
		"LEAF STONE" : "Victreebel"
	},
	"Shellder" : {
		"WATER STONE" : "Cloyster"
	},
	"Exeggcute" : {
		"LEAF STONE" : "Exeggutor"
	},
	"Staryu" : {
		"WATER STONE" : "Starmie"
	},
	"Eevee" : {
		"WATER STONE" : "Vaporeon",
		"THUNDERSTONE" : "Jolteon",
		"FIRE STONE" : "Flareon"
	}
}