{	"Diglett Cave" : "Diglett Cave",	"Mansion 1" : "Cinnabar Island",	"Mansion 2" : "Cinnabar Island",	"Mansion 3" : "Cinnabar Island",	"Mansion B1" : "Cinnabar Island",	"Mt Moon 1" : "Mt.Moon",	"Mt Moon B1" : "Mt.Moon",	"Mt Moon B2" : "Mt.Moon",	"Pokemon Tower 1" : "Pokemon Tower",	"Pokemon Tower 2" : "Pokemon Tower",	"Pokemon Tower 3" : "Pokemon Tower",	"Pokemon Tower 4" : "Pokemon Tower",	"Pokemon Tower 5" : "Pokemon Tower",	"Power Plant" : "Power Plant",	"Rock Tunnel 1" : "Rock Tunnel",	"Rock Tunnel 2" : "Rock Tunnel",	"Route 1" : "Route 1",	"Route 2" : "Route 2",	"Route 3" : "Route 3",	"Route 4" : "Route 4",	"Route 5" : "Route 5",	"Route 6" : "Route 6",	"Route 7" : "Route 7",	"Route 8" : "Route 8",	"Route 9" : "Route 9",	"Route 10" : "Route 10",	"Route 11" : "Route 11",	"Route 12" : "Route 12",	"Route 13" : "Route 13",	"Route 14" : "Route 14",	"Route 15" : "Route 15",	"Route 16" : "Route 16",	"Route 17" : "Route 17",	"Route 18" : "Route 18",
	"Sea Route 19" : "Sea Route 19",
	"Sea Route 20" : "Sea Route 20",	"Route 21" : "Sea Route 21",	"Route 22" : "Route 22",	"Route 23" : "Route 23",	"Route 24" : "Route 24",	"Route 25" : "Route 25",	"Safari Zone 1" : "Safari Zone",	"Safari Zone 2" : "Safari Zone",	"Safari Zone 3" : "Safari Zone",	"Safari Zone Center" : "Safari Zone",	"Seafoam Island 1" : "Seafoam Islands",	"Seafoam Island B1" : "Seafoam Islands",	"Seafoam Island B2" : "Seafoam Islands",	"Seafoam Island B3" : "Seafoam Islands",	"Seafoam Island B4" : "Seafoam Islands",	"Unknown Dungeon 1" : "Cerulean Cave",	"Unknown Dungeon 2" : "Cerulean Cave",	"Unknown Dungeon B1" : "Cerulean Cave",	"Victory Road 1" : "Victory Road",	"Victory Road 2" : "Victory Road",	"Victory Road 3" : "Victory Road",	"Viridian Forest" : "Viridian Forest"
}