{
	"Pallet Town" : 0,
	"Route 1" : 1,
	"Viridian City" : 2,
	"Route 2" : 3,
	"Viridian Forest" : 4,
	"Diglett Cave" : 5,
	"Pewter City" : 6,
	"Route 3" : 7,
	"Mt.Moon" : 8,
	"Route 4" : 9,
	"Cerulean City" : 10,
	"Route 24" : 11,
	"Route 25" : 12,
	"Sea Cottage" : 13,
	"Route 5" : 14,
	"Route 6" : 15,
	"Vermilion City" : 16,
	"S.S.Anne" : 17,
	"Route 9" : 18,
	"Rock Tunnel" : 19,
	"Route 10" : 20,
	"Lavender Town" : 21,
	"Pokemon Tower" : 22,
	"Route 8" : 23,
	"Route 7" : 24,
	"Celadon City" : 25,
	"Saffron City" : 26,
	"Route 11" : 27,
	"Route 12" : 28,
	"Route 13" : 29,
	"Route 14" : 30,
	"Route 15" : 31,
	"Route 16" : 32,
	"Route 17" : 33,
	"Route 18" : 34,
	"Fuchsia City" : 35,
	"Safari Zone" : 36,
	"Sea Route 19" : 37,
	"Seafoam Islands" : 38,
	"Sea Route 20" : 39,
	"Cinnabar Island" : 40,
	"Sea Route 21" : 41,
	"Route 22" : 42,
	"Route 23" : 43,
	"Victory Road" : 44,
	"Indigo Plateau" : 45,
	"Power Plant" : 46,
	"Cerulean Cave" : 47
}