{
    "Beauty" : 70
    "Biker" : 20
    "Bird_keeper" : 25
    "Blackbelt" : 25
    "Boss" : 99
    "Bug_catcher" : 10
    "Burglar" : 90
    "Camper" : 20
	"Champion" : 99
    "Channeler" : 30
    "Cooltrainer" : 35
    "Cue_ball" : 25
	"Elite_four" : 99
    "Engineer" : 50
    "Fisher" : 35
    "Gambler" : 70
    "Gentleman" : 70
    "Grunt" : 30
	"Gym_leader" : 99
    "Hiker" : 35
    "Juggler" : 35
    "Lass" : 15
	"Picknicker" : 20
    "Pokemaniac" : 50
    "Psychic" : 10
	"Rival_1_3" : 35
	"Rival_4_7" : 65
    "Rocker" : 25
    "Sailor" : 30
    "Scientist" : 50
    "Super_nerd" : 25
    "Swimmer" : 5
    "Tamer" : 40
    "Youngster" : 15
}