%YAML 1.1
%TAG !u! tag:unity3d.com,2011:
--- !u!114 &11400000
MonoBehaviour:
  m_ObjectHideFlags: 0
  m_CorrespondingSourceObject: {fileID: 0}
  m_PrefabInstance: {fileID: 0}
  m_PrefabAsset: {fileID: 0}
  m_GameObject: {fileID: 0}
  m_Enabled: 1
  m_EditorHideFlags: 0
  m_Script: {fileID: 11500000, guid: 02c744a45068b344ab28dce6eac3a3a4, type: 3}
  m_Name: Mewtwo
  m_EditorClassIdentifier: 
  Type: 150
  Level: 70
  Status: 0
  Nickname: 
  IsTradedPokmeon: 0
  Moves: 
  Ivs:
    health: 0
    attack: 0
    defense: 0
    special: 0
    speed: 0
  Evs:
    health: 0
    attack: 0
    defense: 0
    special: 0
    speed: 0
